G75*
G70*
%OFA0B0*%
%FSLAX24Y24*%
%IPPOS*%
%LPD*%
%AMOC8*
5,1,8,0,0,1.08239X$1,22.5*
%
%ADD10OC8,0.0680*%
%ADD11C,0.0680*%
%ADD12C,0.3623*%
%ADD13C,0.0789*%
%ADD14C,0.1025*%
%ADD15OC8,0.0820*%
%ADD16C,0.0785*%
%ADD17C,0.0674*%
%ADD18OC8,0.0476*%
%ADD19OC8,0.0437*%
%ADD20OC8,0.0358*%
D10*
X002785Y011816D03*
X003785Y011816D03*
X003785Y012816D03*
X002785Y012816D03*
X002785Y013816D03*
X003785Y013816D03*
X014485Y012916D03*
X014485Y018916D03*
X024385Y018816D03*
X024385Y012816D03*
D11*
X028085Y009616D02*
X028685Y009616D01*
X028685Y008616D02*
X028085Y008616D01*
X028085Y007616D02*
X028685Y007616D01*
D12*
X003335Y003780D03*
X003335Y021103D03*
X036406Y021103D03*
X036406Y003780D03*
D13*
X024032Y019962D02*
X024032Y020670D01*
X022693Y020670D02*
X022693Y019962D01*
X021354Y019962D02*
X021354Y020670D01*
X020016Y020670D02*
X020016Y019962D01*
X018677Y019962D02*
X018677Y020670D01*
X017339Y020670D02*
X017339Y019962D01*
X015032Y019962D02*
X015032Y020670D01*
X013693Y020670D02*
X013693Y019962D01*
X012354Y019962D02*
X012354Y020670D01*
X011016Y020670D02*
X011016Y019962D01*
X009677Y019962D02*
X009677Y020670D01*
X008339Y020670D02*
X008339Y019962D01*
X009008Y021962D02*
X009008Y022670D01*
X010347Y022670D02*
X010347Y021962D01*
X011685Y021962D02*
X011685Y022670D01*
X013024Y022670D02*
X013024Y021962D01*
X014362Y021962D02*
X014362Y022670D01*
X018008Y022670D02*
X018008Y021962D01*
X019347Y021962D02*
X019347Y022670D01*
X020685Y022670D02*
X020685Y021962D01*
X022024Y021962D02*
X022024Y022670D01*
X023362Y022670D02*
X023362Y021962D01*
D14*
X022185Y015273D02*
X022185Y014328D01*
X022185Y013304D02*
X022185Y012359D01*
X017685Y012359D02*
X017685Y013304D01*
X017685Y014328D02*
X017685Y015273D01*
X011685Y015273D02*
X011685Y014328D01*
X011685Y013304D02*
X011685Y012359D01*
X007185Y012359D02*
X007185Y013304D01*
X007185Y014328D02*
X007185Y015273D01*
D15*
X008785Y008616D03*
X009785Y008616D03*
X009785Y007616D03*
X008785Y007616D03*
X008785Y006616D03*
X009785Y006616D03*
D16*
X021185Y002918D02*
X021185Y002213D01*
X023185Y002213D02*
X023185Y002918D01*
X025685Y002918D02*
X025685Y002213D01*
X027685Y002213D02*
X027685Y002918D01*
X030185Y002918D02*
X030185Y002213D01*
X032185Y002213D02*
X032185Y002918D01*
D17*
X019185Y002613D02*
X019185Y002019D01*
X018185Y002019D02*
X018185Y002613D01*
X017185Y002613D02*
X017185Y002019D01*
X016185Y002019D02*
X016185Y002613D01*
X015185Y002613D02*
X015185Y002019D01*
X013685Y002019D02*
X013685Y002613D01*
X012685Y002613D02*
X012685Y002019D01*
X011685Y002019D02*
X011685Y002613D01*
X010685Y002613D02*
X010685Y002019D01*
X009685Y002019D02*
X009685Y002613D01*
D18*
X009085Y001616D03*
X010385Y001216D03*
X009985Y003816D03*
X015985Y003716D03*
X021685Y007516D03*
X022085Y009816D03*
X022285Y010716D03*
X023085Y012516D03*
X018185Y010616D03*
X016585Y009116D03*
X011585Y010616D03*
X012685Y012616D03*
X010185Y015716D03*
X008585Y015816D03*
X008385Y017916D03*
X010085Y017916D03*
X015685Y017116D03*
X018385Y017416D03*
X019285Y015716D03*
X021085Y015816D03*
X023485Y017216D03*
X021785Y017916D03*
X016785Y021516D03*
X006885Y023516D03*
X033485Y012116D03*
X036685Y009216D03*
X037038Y007029D03*
X033319Y007047D03*
D19*
X019385Y008716D03*
X019185Y007716D03*
X008985Y002716D03*
X008585Y004316D03*
D20*
X012285Y006916D03*
X013085Y006416D03*
X011785Y007816D03*
X011585Y008316D03*
X012585Y009316D03*
X013285Y009516D03*
X012285Y010216D03*
X013085Y010916D03*
X014785Y010916D03*
X015685Y010816D03*
X016485Y010416D03*
X018585Y010016D03*
X019885Y011216D03*
X020985Y009816D03*
X016185Y007116D03*
X015485Y007316D03*
X015985Y005716D03*
X016685Y005316D03*
X016185Y005016D03*
X016485Y004716D03*
X017085Y005716D03*
X017685Y006816D03*
X018385Y006816D03*
X018685Y006016D03*
X019185Y006016D03*
X014585Y003516D03*
X004885Y008616D03*
X010985Y010116D03*
M02*
